{
    "id": "0e4c9aad-20f1-4323-9150-8e53a1e95ffc",
    "schema": "https://metadata.datadrivendiscovery.org/schemas/v0/pipeline.json",
    "created": "2022-01-26T21:38:45.370661Z",
    "inputs": [
        {
            "name": "dataset inputs"
        }
    ],
    "outputs": [
        {
            "data": "steps.12.produce",
            "name": "output predictions"
        }
    ],
    "steps": [
        {
            "type": "PRIMITIVE",
            "primitive": {
                "id": "f31f8c1f-d1c5-43e5-a4b2-2ae4a761ef2e",
                "version": "0.2.0",
                "python_path": "d3m.primitives.data_transformation.denormalize.Common",
                "name": "Denormalize datasets",
                "digest": "73bfeb0ba78263535829f4188e6226493d74895891d5a701e4b819379c153913"
            },
            "arguments": {
                "inputs": {
                    "type": "CONTAINER",
                    "data": "inputs.0"
                }
            },
            "outputs": [
                {
                    "id": "produce"
                }
            ]
        },
        {
            "type": "PRIMITIVE",
            "primitive": {
                "id": "4b42ce1e-9b98-4a25-b68e-fad13311eb65",
                "version": "0.3.0",
                "python_path": "d3m.primitives.data_transformation.dataset_to_dataframe.Common",
                "name": "Extract a DataFrame from a Dataset",
                "digest": "84931912149fc585b82ac16eef70d8d5c7bca38f901ce2c0bfcf7dd3c6fb11e6"
            },
            "arguments": {
                "inputs": {
                    "type": "CONTAINER",
                    "data": "steps.0.produce"
                }
            },
            "outputs": [
                {
                    "id": "produce"
                }
            ]
        },
        {
            "type": "PRIMITIVE",
            "primitive": {
                "id": "e193afa1-b45e-4d29-918f-5bb1fa3b88a7",
                "version": "0.2.0",
                "python_path": "d3m.primitives.schema_discovery.profiler.Common",
                "name": "Determine missing semantic types for columns automatically",
                "digest": "e363e0f94c40b83d0f587771eaa954395ec800354b8383aa2b34be3f21fe8f44"
            },
            "arguments": {
                "inputs": {
                    "type": "CONTAINER",
                    "data": "steps.1.produce"
                }
            },
            "outputs": [
                {
                    "id": "produce"
                }
            ]
        },
        {
            "type": "PRIMITIVE",
            "primitive": {
                "id": "4503a4c6-42f7-45a1-a1d4-ed69699cf5e1",
                "version": "0.4.0",
                "python_path": "d3m.primitives.data_transformation.extract_columns_by_semantic_types.Common",
                "name": "Extracts columns by semantic type",
                "digest": "91d66c10dd541fd9a5ed0b0c3c4e383b01dc483137a8cc6a90f871e00140a0fe"
            },
            "arguments": {
                "inputs": {
                    "type": "CONTAINER",
                    "data": "steps.2.produce"
                }
            },
            "outputs": [
                {
                    "id": "produce"
                }
            ],
            "hyperparams": {
                "semantic_types": {
                    "type": "VALUE",
                    "data": [
                        "https://metadata.datadrivendiscovery.org/types/TrueTarget"
                    ]
                }
            }
        },
        {
            "type": "PRIMITIVE",
            "primitive": {
                "id": "d7e14b12-abeb-42d8-942f-bdb077b4fd37",
                "version": "0.1.0",
                "python_path": "d3m.primitives.data_transformation.add_semantic_types.Common",
                "name": "Add semantic types to columns",
                "digest": "c3713315f151c236549ce8be9d6b36fe548f7f59ccd3b01c6700a5609f31acd6"
            },
            "arguments": {
                "inputs": {
                    "type": "CONTAINER",
                    "data": "steps.2.produce"
                }
            },
            "outputs": [
                {
                    "id": "produce"
                }
            ],
            "hyperparams": {
                "columns": {
                    "type": "VALUE",
                    "data": [
                        2
                    ]
                },
                "semantic_types": {
                    "type": "VALUE",
                    "data": [
                        "http://schema.org/Float",
                        "https://metadata.datadrivendiscovery.org/types/Attribute"
                    ]
                }
            }
        },
        {
            "type": "PRIMITIVE",
            "primitive": {
                "id": "d510cb7a-1782-4f51-b44c-58f0236e47c7",
                "version": "0.6.0",
                "python_path": "d3m.primitives.data_transformation.column_parser.Common",
                "name": "Parses strings into their types",
                "digest": "28e19115e2f1da03c41308a7f4ddd40b5792f9faa5d9c83b28df4dd9e36bf79c"
            },
            "arguments": {
                "inputs": {
                    "type": "CONTAINER",
                    "data": "steps.4.produce"
                }
            },
            "outputs": [
                {
                    "id": "produce"
                }
            ],
            "hyperparams": {
                "exclude_columns": {
                    "type": "VALUE",
                    "data": [
                        2
                    ]
                }
            }
        },
        {
            "type": "PRIMITIVE",
            "primitive": {
                "id": "4503a4c6-42f7-45a1-a1d4-ed69699cf5e1",
                "version": "0.4.0",
                "python_path": "d3m.primitives.data_transformation.extract_columns_by_semantic_types.Common",
                "name": "Extracts columns by semantic type",
                "digest": "91d66c10dd541fd9a5ed0b0c3c4e383b01dc483137a8cc6a90f871e00140a0fe"
            },
            "arguments": {
                "inputs": {
                    "type": "CONTAINER",
                    "data": "steps.5.produce"
                }
            },
            "outputs": [
                {
                    "id": "produce"
                }
            ]
        },
        {
            "type": "PRIMITIVE",
            "primitive": {
                "id": "d016df89-de62-3c53-87ed-c06bb6a23cde",
                "version": "2021.3.19",
                "python_path": "d3m.primitives.data_cleaning.imputer.SKlearn",
                "name": "sklearn.impute.SimpleImputer",
                "digest": "2006ef9aea747ab56dd04460b2d0cb6d3420c9818730cb411447d009319dff53"
            },
            "arguments": {
                "inputs": {
                    "type": "CONTAINER",
                    "data": "steps.6.produce"
                }
            },
            "outputs": [
                {
                    "id": "produce"
                }
            ],
            "hyperparams": {
                "use_semantic_types": {
                    "type": "VALUE",
                    "data": true
                },
                "return_result": {
                    "type": "VALUE",
                    "data": "replace"
                },
                "strategy": {
                    "type": "VALUE",
                    "data": "median"
                },
                "error_on_no_input": {
                    "type": "VALUE",
                    "data": false
                }
            }
        },
        {
            "type": "PRIMITIVE",
            "primitive": {
                "id": "d3d421cb-9601-43f0-83d9-91a9c4199a06",
                "version": "0.7.0",
                "python_path": "d3m.primitives.data_transformation.one_hot_encoder.DistilOneHotEncoder",
                "name": "One-hot encoder",
                "digest": "25cb654a831f7d1d5c84e7ef1cfdb29a264a1cd15bfe73f243f04708f9146df0"
            },
            "arguments": {
                "inputs": {
                    "type": "CONTAINER",
                    "data": "steps.7.produce"
                }
            },
            "outputs": [
                {
                    "id": "produce"
                }
            ],
            "hyperparams": {
                "use_columns": {
                    "type": "VALUE",
                    "data": [
                        16
                    ]
                },
                "max_one_hot": {
                    "type": "VALUE",
                    "data": 100
                }
            }
        },
        {
            "type": "PRIMITIVE",
            "primitive": {
                "id": "7ddf2fd8-2f7f-4e53-96a7-0d9f5aeecf93",
                "version": "1.5.4",
                "python_path": "d3m.primitives.data_transformation.to_numeric.DSBOX",
                "name": "ISI DSBox To Numeric DataFrame",
                "digest": "267a5e46f1e536371ce12b72ed91f21660199592d04a1a74ca72d72f7732e037"
            },
            "arguments": {
                "inputs": {
                    "type": "CONTAINER",
                    "data": "steps.8.produce"
                }
            },
            "outputs": [
                {
                    "id": "produce"
                }
            ]
        },
        {
            "type": "PRIMITIVE",
            "primitive": {
                "id": "854727ed-c82c-3137-ac59-fd52bc9ba385",
                "version": "2021.3.19",
                "python_path": "d3m.primitives.data_cleaning.robust_scaler.SKlearn",
                "name": "sklearn.preprocessing.data.RobustScaler",
                "digest": "a77515821365342942e7cf1d5920c57f59bd6efec56ae644805907c37619bef7"
            },
            "arguments": {
                "inputs": {
                    "type": "CONTAINER",
                    "data": "steps.9.produce"
                }
            },
            "outputs": [
                {
                    "id": "produce"
                }
            ],
            "hyperparams": {
                "return_result": {
                    "type": "VALUE",
                    "data": "replace"
                }
            }
        },
        {
            "type": "PRIMITIVE",
            "primitive": {
                "id": "1b2a32a6-0ec5-3ca0-9386-b8b1f1b831d1",
                "version": "2021.3.19",
                "python_path": "d3m.primitives.classification.bagging.SKlearn",
                "name": "sklearn.ensemble.bagging.BaggingClassifier",
                "digest": "c1332ad3536a874b8cb5ae7dd61288f30c613034c8ceefcf379224908911f1d1"
            },
            "arguments": {
                "inputs": {
                    "type": "CONTAINER",
                    "data": "steps.10.produce"
                },
                "outputs": {
                    "type": "CONTAINER",
                    "data": "steps.3.produce"
                }
            },
            "outputs": [
                {
                    "id": "produce"
                }
            ],
            "hyperparams": {
                "n_estimators": {
                    "type": "VALUE",
                    "data": 100
                }
            }
        },
        {
            "type": "PRIMITIVE",
            "primitive": {
                "id": "8d38b340-f83f-4877-baaa-162f8e551736",
                "version": "0.3.0",
                "python_path": "d3m.primitives.data_transformation.construct_predictions.Common",
                "name": "Construct pipeline predictions output",
                "digest": "60d0bd9c5c4848c91b5eb9b75a92fe869ec0bb73de3b6795836515e76f05111e"
            },
            "arguments": {
                "inputs": {
                    "type": "CONTAINER",
                    "data": "steps.11.produce"
                },
                "reference": {
                    "type": "CONTAINER",
                    "data": "steps.1.produce"
                }
            },
            "outputs": [
                {
                    "id": "produce"
                }
            ]
        }
    ],
    "name": "Pipeline for evaluation",
    "digest": "ae76e864b501836d7679d69409aa581fa78d9bee0dd993ecc53e54d7a8b99721",
    "pipeline_rank": "10",
    "pipeline_score": 0.6591863937701303
}