{
    "id": "208f290f-83e6-4dd9-b7a6-94094983b003",
    "schema": "https://metadata.datadrivendiscovery.org/schemas/v0/pipeline.json",
    "created": "2022-01-26T21:13:33.472668Z",
    "inputs": [
        {
            "name": "dataset inputs"
        }
    ],
    "outputs": [
        {
            "data": "steps.8.produce",
            "name": "output predictions"
        }
    ],
    "steps": [
        {
            "type": "PRIMITIVE",
            "primitive": {
                "id": "f31f8c1f-d1c5-43e5-a4b2-2ae4a761ef2e",
                "version": "0.2.0",
                "python_path": "d3m.primitives.data_transformation.denormalize.Common",
                "name": "Denormalize datasets",
                "digest": "73bfeb0ba78263535829f4188e6226493d74895891d5a701e4b819379c153913"
            },
            "arguments": {
                "inputs": {
                    "type": "CONTAINER",
                    "data": "inputs.0"
                }
            },
            "outputs": [
                {
                    "id": "produce"
                }
            ]
        },
        {
            "type": "PRIMITIVE",
            "primitive": {
                "id": "4b42ce1e-9b98-4a25-b68e-fad13311eb65",
                "version": "0.3.0",
                "python_path": "d3m.primitives.data_transformation.dataset_to_dataframe.Common",
                "name": "Extract a DataFrame from a Dataset",
                "digest": "84931912149fc585b82ac16eef70d8d5c7bca38f901ce2c0bfcf7dd3c6fb11e6"
            },
            "arguments": {
                "inputs": {
                    "type": "CONTAINER",
                    "data": "steps.0.produce"
                }
            },
            "outputs": [
                {
                    "id": "produce"
                }
            ]
        },
        {
            "type": "PRIMITIVE",
            "primitive": {
                "id": "e193afa1-b45e-4d29-918f-5bb1fa3b88a7",
                "version": "0.2.0",
                "python_path": "d3m.primitives.schema_discovery.profiler.Common",
                "name": "Determine missing semantic types for columns automatically",
                "digest": "e363e0f94c40b83d0f587771eaa954395ec800354b8383aa2b34be3f21fe8f44"
            },
            "arguments": {
                "inputs": {
                    "type": "CONTAINER",
                    "data": "steps.1.produce"
                }
            },
            "outputs": [
                {
                    "id": "produce"
                }
            ]
        },
        {
            "type": "PRIMITIVE",
            "primitive": {
                "id": "4503a4c6-42f7-45a1-a1d4-ed69699cf5e1",
                "version": "0.4.0",
                "python_path": "d3m.primitives.data_transformation.extract_columns_by_semantic_types.Common",
                "name": "Extracts columns by semantic type",
                "digest": "91d66c10dd541fd9a5ed0b0c3c4e383b01dc483137a8cc6a90f871e00140a0fe"
            },
            "arguments": {
                "inputs": {
                    "type": "CONTAINER",
                    "data": "steps.2.produce"
                }
            },
            "outputs": [
                {
                    "id": "produce"
                }
            ],
            "hyperparams": {
                "semantic_types": {
                    "type": "VALUE",
                    "data": [
                        "https://metadata.datadrivendiscovery.org/types/TrueTarget"
                    ]
                }
            }
        },
        {
            "type": "PRIMITIVE",
            "primitive": {
                "id": "dsbox-featurizer-image-dataframe-to-tensor",
                "version": "1.5.4",
                "python_path": "d3m.primitives.data_transformation.dataframe_to_tensor.DSBOX",
                "name": "DSBox Image Featurizer dataframe to tensor transformer",
                "digest": "a6ba6fd22970fcbbc3d1f6bd86dd02bc7e74e634df7979b572d97e54e477a852"
            },
            "arguments": {
                "inputs": {
                    "type": "CONTAINER",
                    "data": "steps.2.produce"
                }
            },
            "outputs": [
                {
                    "id": "produce"
                }
            ]
        },
        {
            "type": "PRIMITIVE",
            "primitive": {
                "id": "dsbox-featurizer-image-resnet50",
                "version": "1.5.4",
                "python_path": "d3m.primitives.feature_extraction.resnet50_image_feature.DSBOX",
                "name": "DSBox Image Featurizer ResNet50",
                "digest": "c879588b7a4b1d17154dc8f7d79a12d32cf392a19eb9ea022cd21e0c74f5b4b3"
            },
            "arguments": {
                "inputs": {
                    "type": "CONTAINER",
                    "data": "steps.4.produce"
                }
            },
            "outputs": [
                {
                    "id": "produce"
                }
            ]
        },
        {
            "type": "PRIMITIVE",
            "primitive": {
                "id": "7ddf2fd8-2f7f-4e53-96a7-0d9f5aeecf93",
                "version": "1.5.4",
                "python_path": "d3m.primitives.data_transformation.to_numeric.DSBOX",
                "name": "ISI DSBox To Numeric DataFrame",
                "digest": "267a5e46f1e536371ce12b72ed91f21660199592d04a1a74ca72d72f7732e037"
            },
            "arguments": {
                "inputs": {
                    "type": "CONTAINER",
                    "data": "steps.5.produce"
                }
            },
            "outputs": [
                {
                    "id": "produce"
                }
            ]
        },
        {
            "type": "PRIMITIVE",
            "primitive": {
                "id": "71749b20-80e9-3a8e-998e-25da5bbc1abc",
                "version": "2021.3.19",
                "python_path": "d3m.primitives.classification.linear_svc.SKlearn",
                "name": "sklearn.svm.classes.LinearSVC",
                "digest": "bf4593b13502bfba3127fd6f48b019c3524ae4f2cea3d8879b150dd249bad5b2"
            },
            "arguments": {
                "inputs": {
                    "type": "CONTAINER",
                    "data": "steps.6.produce"
                },
                "outputs": {
                    "type": "CONTAINER",
                    "data": "steps.3.produce"
                }
            },
            "outputs": [
                {
                    "id": "produce"
                }
            ]
        },
        {
            "type": "PRIMITIVE",
            "primitive": {
                "id": "8d38b340-f83f-4877-baaa-162f8e551736",
                "version": "0.3.0",
                "python_path": "d3m.primitives.data_transformation.construct_predictions.Common",
                "name": "Construct pipeline predictions output",
                "digest": "60d0bd9c5c4848c91b5eb9b75a92fe869ec0bb73de3b6795836515e76f05111e"
            },
            "arguments": {
                "inputs": {
                    "type": "CONTAINER",
                    "data": "steps.7.produce"
                },
                "reference": {
                    "type": "CONTAINER",
                    "data": "steps.1.produce"
                }
            },
            "outputs": [
                {
                    "id": "produce"
                }
            ]
        }
    ],
    "name": "Pipeline for evaluation",
    "digest": "52d6ab471a413b7c295d7217a6330de0811806399bc36379365e704d273618ad",
    "pipeline_rank": "2",
    "pipeline_score": 0.6434238827805451
}